[gd_scene load_steps=3 format=3]

[ext_resource type="Texture2D" uid="uid://bpqek0iac5ldu" path="res://Art/Goblin/Goblin_Walk_Front.png" id="1_51mwf"]

[sub_resource type="CircleShape2D" id="CircleShape2D_4hpuv"]

[node name="Boss" type="CharacterBody2D"]

[node name="CollisionShape2D" type="CollisionShape2D" parent="."]
shape = SubResource("CircleShape2D_4hpuv")

[node name="Sprite2D" type="Sprite2D" parent="."]
scale = Vector2(4, 4)
texture = ExtResource("1_51mwf")
region_enabled = true
region_rect = Rect2(1.8696, 2.79002, 28.6501, 28.6501)
