[gd_resource type="TileSet" load_steps=11 format=3 uid="uid://e2ekwuee0gmr"]

[ext_resource type="Texture2D" uid="uid://dy6px7i5lmorx" path="res://Art/Dungeon_Tilese_2.png" id="1_n18rb"]

[sub_resource type="NavigationPolygon" id="NavigationPolygon_1ghbu"]

[sub_resource type="NavigationPolygon" id="NavigationPolygon_ac6u6"]
vertices = PackedVector2Array(1, -1, 1, 1, -1, 1, -1, -1)
polygons = Array[PackedInt32Array]([PackedInt32Array(0, 1, 2, 3)])
outlines = Array[PackedVector2Array]([PackedVector2Array(-1, -1, -1, 1, 1, 1, 1, -1)])

[sub_resource type="NavigationPolygon" id="NavigationPolygon_8lanm"]
vertices = PackedVector2Array(1, -1, 1, 1, -1, 1, -1, -1)
polygons = Array[PackedInt32Array]([PackedInt32Array(0, 1, 2, 3)])
outlines = Array[PackedVector2Array]([PackedVector2Array(-1, -1, -1, 1, 1, 1, 1, -1)])

[sub_resource type="NavigationPolygon" id="NavigationPolygon_xwfmy"]

[sub_resource type="NavigationPolygon" id="NavigationPolygon_s7rfj"]

[sub_resource type="NavigationPolygon" id="NavigationPolygon_jliib"]

[sub_resource type="NavigationPolygon" id="NavigationPolygon_xirso"]

[sub_resource type="NavigationPolygon" id="NavigationPolygon_eimah"]

[sub_resource type="TileSetAtlasSource" id="TileSetAtlasSource_0ahy8"]
texture = ExtResource("1_n18rb")
0:0/0 = 0
0:0/0/physics_layer_0/linear_velocity = Vector2(0, 0)
0:0/0/physics_layer_0/angular_velocity = 0.0
0:0/0/physics_layer_1/linear_velocity = Vector2(0, 0)
0:0/0/physics_layer_1/angular_velocity = 0.0
1:0/0 = 0
1:0/0/physics_layer_0/linear_velocity = Vector2(0, 0)
1:0/0/physics_layer_0/angular_velocity = 0.0
1:0/0/physics_layer_1/linear_velocity = Vector2(0, 0)
1:0/0/physics_layer_1/angular_velocity = 0.0
2:0/0 = 0
2:0/0/physics_layer_0/linear_velocity = Vector2(0, 0)
2:0/0/physics_layer_0/angular_velocity = 0.0
2:0/0/physics_layer_1/linear_velocity = Vector2(0, 0)
2:0/0/physics_layer_1/angular_velocity = 0.0
3:0/0 = 0
3:0/0/physics_layer_0/linear_velocity = Vector2(0, 0)
3:0/0/physics_layer_0/angular_velocity = 0.0
3:0/0/physics_layer_1/linear_velocity = Vector2(0, 0)
3:0/0/physics_layer_1/angular_velocity = 0.0
5:0/0 = 0
5:0/0/physics_layer_0/linear_velocity = Vector2(0, 0)
5:0/0/physics_layer_0/angular_velocity = 0.0
5:0/0/physics_layer_1/linear_velocity = Vector2(0, 0)
5:0/0/physics_layer_1/angular_velocity = 0.0
0:1/0 = 0
0:1/0/physics_layer_0/linear_velocity = Vector2(0, 0)
0:1/0/physics_layer_0/angular_velocity = 0.0
0:1/0/physics_layer_1/linear_velocity = Vector2(0, 0)
0:1/0/physics_layer_1/angular_velocity = 0.0
1:1/0 = 0
1:1/0/physics_layer_0/linear_velocity = Vector2(0, 0)
1:1/0/physics_layer_0/angular_velocity = 0.0
1:1/0/physics_layer_1/linear_velocity = Vector2(0, 0)
1:1/0/physics_layer_1/angular_velocity = 0.0
2:1/0 = 0
2:1/0/physics_layer_0/linear_velocity = Vector2(0, 0)
2:1/0/physics_layer_0/angular_velocity = 0.0
2:1/0/physics_layer_1/linear_velocity = Vector2(0, 0)
2:1/0/physics_layer_1/angular_velocity = 0.0
3:1/0 = 0
3:1/0/physics_layer_0/linear_velocity = Vector2(0, 0)
3:1/0/physics_layer_0/angular_velocity = 0.0
3:1/0/physics_layer_1/linear_velocity = Vector2(0, 0)
3:1/0/physics_layer_1/angular_velocity = 0.0
4:1/0 = 0
4:1/0/physics_layer_0/linear_velocity = Vector2(0, 0)
4:1/0/physics_layer_0/angular_velocity = 0.0
4:1/0/physics_layer_1/linear_velocity = Vector2(0, 0)
4:1/0/physics_layer_1/angular_velocity = 0.0
5:1/0 = 0
5:1/0/physics_layer_0/linear_velocity = Vector2(0, 0)
5:1/0/physics_layer_0/angular_velocity = 0.0
5:1/0/physics_layer_1/linear_velocity = Vector2(0, 0)
5:1/0/physics_layer_1/angular_velocity = 0.0
6:1/0 = 0
6:1/0/physics_layer_0/linear_velocity = Vector2(0, 0)
6:1/0/physics_layer_0/angular_velocity = 0.0
6:1/0/physics_layer_1/linear_velocity = Vector2(0, 0)
6:1/0/physics_layer_1/angular_velocity = 0.0
0:2/0 = 0
0:2/0/physics_layer_0/linear_velocity = Vector2(0, 0)
0:2/0/physics_layer_0/angular_velocity = 0.0
0:2/0/physics_layer_0/polygon_0/points = PackedVector2Array(-7, -7, 7, -7, 7, 7, -7, 7)
0:2/0/physics_layer_1/linear_velocity = Vector2(0, 0)
0:2/0/physics_layer_1/angular_velocity = 0.0
0:2/0/navigation_layer_0/polygon = SubResource("NavigationPolygon_1ghbu")
1:2/0 = 0
1:2/0/physics_layer_0/linear_velocity = Vector2(0, 0)
1:2/0/physics_layer_0/angular_velocity = 0.0
1:2/0/physics_layer_1/linear_velocity = Vector2(0, 0)
1:2/0/physics_layer_1/angular_velocity = 0.0
2:2/0 = 0
2:2/0/physics_layer_0/linear_velocity = Vector2(0, 0)
2:2/0/physics_layer_0/angular_velocity = 0.0
2:2/0/physics_layer_1/linear_velocity = Vector2(0, 0)
2:2/0/physics_layer_1/angular_velocity = 0.0
2:2/0/navigation_layer_0/polygon = SubResource("NavigationPolygon_8lanm")
3:2/0 = 0
3:2/0/physics_layer_0/linear_velocity = Vector2(0, 0)
3:2/0/physics_layer_0/angular_velocity = 0.0
3:2/0/physics_layer_1/linear_velocity = Vector2(0, 0)
3:2/0/physics_layer_1/angular_velocity = 0.0
4:2/0 = 0
4:2/0/physics_layer_0/linear_velocity = Vector2(0, 0)
4:2/0/physics_layer_0/angular_velocity = 0.0
4:2/0/physics_layer_1/linear_velocity = Vector2(0, 0)
4:2/0/physics_layer_1/angular_velocity = 0.0
5:2/0 = 0
5:2/0/physics_layer_0/linear_velocity = Vector2(0, 0)
5:2/0/physics_layer_0/angular_velocity = 0.0
5:2/0/physics_layer_1/linear_velocity = Vector2(0, 0)
5:2/0/physics_layer_1/angular_velocity = 0.0
6:2/0 = 0
6:2/0/physics_layer_0/linear_velocity = Vector2(0, 0)
6:2/0/physics_layer_0/angular_velocity = 0.0
6:2/0/physics_layer_1/linear_velocity = Vector2(0, 0)
6:2/0/physics_layer_1/angular_velocity = 0.0
6:2/0/navigation_layer_0/polygon = SubResource("NavigationPolygon_xirso")
7:2/0 = 0
7:2/0/physics_layer_0/linear_velocity = Vector2(0, 0)
7:2/0/physics_layer_0/angular_velocity = 0.0
7:2/0/physics_layer_1/linear_velocity = Vector2(0, 0)
7:2/0/physics_layer_1/angular_velocity = 0.0
7:2/0/navigation_layer_0/polygon = SubResource("NavigationPolygon_eimah")
0:3/0 = 0
0:3/0/physics_layer_0/linear_velocity = Vector2(0, 0)
0:3/0/physics_layer_0/angular_velocity = 0.0
0:3/0/physics_layer_1/linear_velocity = Vector2(0, 0)
0:3/0/physics_layer_1/angular_velocity = 0.0
0:3/0/navigation_layer_0/polygon = SubResource("NavigationPolygon_ac6u6")
1:3/0 = 0
1:3/0/physics_layer_0/linear_velocity = Vector2(0, 0)
1:3/0/physics_layer_0/angular_velocity = 0.0
1:3/0/physics_layer_1/linear_velocity = Vector2(0, 0)
1:3/0/physics_layer_1/angular_velocity = 0.0
2:3/0 = 0
2:3/0/physics_layer_0/linear_velocity = Vector2(0, 0)
2:3/0/physics_layer_0/angular_velocity = 0.0
2:3/0/physics_layer_1/linear_velocity = Vector2(0, 0)
2:3/0/physics_layer_1/angular_velocity = 0.0
2:3/0/navigation_layer_0/polygon = SubResource("NavigationPolygon_xwfmy")
3:3/0 = 0
3:3/0/physics_layer_0/linear_velocity = Vector2(0, 0)
3:3/0/physics_layer_0/angular_velocity = 0.0
3:3/0/physics_layer_1/linear_velocity = Vector2(0, 0)
3:3/0/physics_layer_1/angular_velocity = 0.0
4:3/0 = 0
4:3/0/physics_layer_0/linear_velocity = Vector2(0, 0)
4:3/0/physics_layer_0/angular_velocity = 0.0
4:3/0/physics_layer_1/linear_velocity = Vector2(0, 0)
4:3/0/physics_layer_1/angular_velocity = 0.0
5:3/0 = 0
5:3/0/physics_layer_0/linear_velocity = Vector2(0, 0)
5:3/0/physics_layer_0/angular_velocity = 0.0
5:3/0/physics_layer_1/linear_velocity = Vector2(0, 0)
5:3/0/physics_layer_1/angular_velocity = 0.0
6:3/0 = 0
6:3/0/physics_layer_0/linear_velocity = Vector2(0, 0)
6:3/0/physics_layer_0/angular_velocity = 0.0
6:3/0/physics_layer_1/linear_velocity = Vector2(0, 0)
6:3/0/physics_layer_1/angular_velocity = 0.0
7:3/0 = 0
7:3/0/physics_layer_0/linear_velocity = Vector2(0, 0)
7:3/0/physics_layer_0/angular_velocity = 0.0
7:3/0/physics_layer_1/linear_velocity = Vector2(0, 0)
7:3/0/physics_layer_1/angular_velocity = 0.0
1:4/0 = 0
1:4/0/physics_layer_0/linear_velocity = Vector2(0, 0)
1:4/0/physics_layer_0/angular_velocity = 0.0
1:4/0/physics_layer_1/linear_velocity = Vector2(0, 0)
1:4/0/physics_layer_1/angular_velocity = 0.0
2:4/0 = 0
2:4/0/physics_layer_0/linear_velocity = Vector2(0, 0)
2:4/0/physics_layer_0/angular_velocity = 0.0
2:4/0/physics_layer_1/linear_velocity = Vector2(0, 0)
2:4/0/physics_layer_1/angular_velocity = 0.0
3:4/0 = 0
3:4/0/physics_layer_0/linear_velocity = Vector2(0, 0)
3:4/0/physics_layer_0/angular_velocity = 0.0
3:4/0/physics_layer_1/linear_velocity = Vector2(0, 0)
3:4/0/physics_layer_1/angular_velocity = 0.0
4:4/0 = 0
4:4/0/physics_layer_0/linear_velocity = Vector2(0, 0)
4:4/0/physics_layer_0/angular_velocity = 0.0
4:4/0/physics_layer_1/linear_velocity = Vector2(0, 0)
4:4/0/physics_layer_1/angular_velocity = 0.0
4:4/0/navigation_layer_0/polygon = SubResource("NavigationPolygon_s7rfj")
5:4/0 = 0
5:4/0/physics_layer_0/linear_velocity = Vector2(0, 0)
5:4/0/physics_layer_0/angular_velocity = 0.0
5:4/0/physics_layer_1/linear_velocity = Vector2(0, 0)
5:4/0/physics_layer_1/angular_velocity = 0.0
6:4/0 = 0
6:4/0/physics_layer_0/linear_velocity = Vector2(0, 0)
6:4/0/physics_layer_0/angular_velocity = 0.0
6:4/0/physics_layer_1/linear_velocity = Vector2(0, 0)
6:4/0/physics_layer_1/angular_velocity = 0.0
7:4/0 = 0
7:4/0/physics_layer_0/linear_velocity = Vector2(0, 0)
7:4/0/physics_layer_0/angular_velocity = 0.0
7:4/0/physics_layer_1/linear_velocity = Vector2(0, 0)
7:4/0/physics_layer_1/angular_velocity = 0.0
1:5/0 = 0
1:5/0/physics_layer_0/linear_velocity = Vector2(0, 0)
1:5/0/physics_layer_0/angular_velocity = 0.0
1:5/0/physics_layer_1/linear_velocity = Vector2(0, 0)
1:5/0/physics_layer_1/angular_velocity = 0.0
2:5/0 = 0
2:5/0/physics_layer_0/linear_velocity = Vector2(0, 0)
2:5/0/physics_layer_0/angular_velocity = 0.0
2:5/0/physics_layer_1/linear_velocity = Vector2(0, 0)
2:5/0/physics_layer_1/angular_velocity = 0.0
3:5/0 = 0
3:5/0/physics_layer_0/linear_velocity = Vector2(0, 0)
3:5/0/physics_layer_0/angular_velocity = 0.0
3:5/0/physics_layer_1/linear_velocity = Vector2(0, 0)
3:5/0/physics_layer_1/angular_velocity = 0.0
4:5/0 = 0
4:5/0/physics_layer_0/linear_velocity = Vector2(0, 0)
4:5/0/physics_layer_0/angular_velocity = 0.0
4:5/0/physics_layer_1/linear_velocity = Vector2(0, 0)
4:5/0/physics_layer_1/angular_velocity = 0.0
4:5/0/navigation_layer_0/polygon = SubResource("NavigationPolygon_jliib")
5:5/0 = 0
5:5/0/physics_layer_0/linear_velocity = Vector2(0, 0)
5:5/0/physics_layer_0/angular_velocity = 0.0
5:5/0/physics_layer_1/linear_velocity = Vector2(0, 0)
5:5/0/physics_layer_1/angular_velocity = 0.0
1:6/0 = 0
1:6/0/physics_layer_0/linear_velocity = Vector2(0, 0)
1:6/0/physics_layer_0/angular_velocity = 0.0
1:6/0/physics_layer_1/linear_velocity = Vector2(0, 0)
1:6/0/physics_layer_1/angular_velocity = 0.0
2:6/0 = 0
2:6/0/physics_layer_0/linear_velocity = Vector2(0, 0)
2:6/0/physics_layer_0/angular_velocity = 0.0
2:6/0/physics_layer_1/linear_velocity = Vector2(0, 0)
2:6/0/physics_layer_1/angular_velocity = 0.0
2:6/0/physics_layer_1/polygon_0/points = PackedVector2Array(-8, -8, 8, -8, 8, 8, -8, 8)
3:6/0 = 0
3:6/0/physics_layer_0/linear_velocity = Vector2(0, 0)
3:6/0/physics_layer_0/angular_velocity = 0.0
3:6/0/physics_layer_1/linear_velocity = Vector2(0, 0)
3:6/0/physics_layer_1/angular_velocity = 0.0
4:6/0 = 0
4:6/0/physics_layer_0/linear_velocity = Vector2(0, 0)
4:6/0/physics_layer_0/angular_velocity = 0.0
4:6/0/physics_layer_1/linear_velocity = Vector2(0, 0)
4:6/0/physics_layer_1/angular_velocity = 0.0
5:6/0 = 0
5:6/0/physics_layer_0/linear_velocity = Vector2(0, 0)
5:6/0/physics_layer_0/angular_velocity = 0.0
5:6/0/physics_layer_1/linear_velocity = Vector2(0, 0)
5:6/0/physics_layer_1/angular_velocity = 0.0
1:7/0 = 0
1:7/0/physics_layer_0/linear_velocity = Vector2(0, 0)
1:7/0/physics_layer_0/angular_velocity = 0.0
1:7/0/physics_layer_1/linear_velocity = Vector2(0, 0)
1:7/0/physics_layer_1/angular_velocity = 0.0
2:7/0 = 0
2:7/0/physics_layer_0/linear_velocity = Vector2(0, 0)
2:7/0/physics_layer_0/angular_velocity = 0.0
2:7/0/physics_layer_1/linear_velocity = Vector2(0, 0)
2:7/0/physics_layer_1/angular_velocity = 0.0
3:7/0 = 0
3:7/0/physics_layer_0/linear_velocity = Vector2(0, 0)
3:7/0/physics_layer_0/angular_velocity = 0.0
3:7/0/physics_layer_1/linear_velocity = Vector2(0, 0)
3:7/0/physics_layer_1/angular_velocity = 0.0
4:7/0 = 0
4:7/0/physics_layer_0/linear_velocity = Vector2(0, 0)
4:7/0/physics_layer_0/angular_velocity = 0.0
4:7/0/physics_layer_1/linear_velocity = Vector2(0, 0)
4:7/0/physics_layer_1/angular_velocity = 0.0
5:7/0 = 0
5:7/0/physics_layer_0/linear_velocity = Vector2(0, 0)
5:7/0/physics_layer_0/angular_velocity = 0.0
5:7/0/physics_layer_1/linear_velocity = Vector2(0, 0)
5:7/0/physics_layer_1/angular_velocity = 0.0

[resource]
physics_layer_0/collision_layer = 1
physics_layer_1/collision_layer = 8
physics_layer_1/collision_mask = 0
navigation_layer_0/layers = 1
sources/1 = SubResource("TileSetAtlasSource_0ahy8")
